{
    "nativeSymbol": "FLR",
    "nativeFtsoDecimals": 5,
    "wrappedNativeName": "Wrapped Flare",
    "wrappedNativeSymbol": "WFLR",
    "stateConnectorAddress": "0x1000000000000000000000000000000000000001",
    "flareDaemonAddress": "0x1000000000000000000000000000000000000002",
    "priceSubmitterAddress": "0x1000000000000000000000000000000000000003",
    "distributionTreasuryAddress": "0x1000000000000000000000000000000000000004",
    "incentivePoolTreasuryAddress": "0x1000000000000000000000000000000000000005",
    "initialAirdropAddress": "0x1000000000000000000000000000000000000006",
    "governanceSettingsAddress": "0x1000000000000000000000000000000000000007",
    "deployerPrivateKey": "<use .env: DEPLOYER_PRIVATE_KEY>",
    "genesisGovernancePrivateKey": "<use .env: GENESIS_GOVERNANCE_PRIVATE_KEY>",
    "governancePrivateKey": "<use .env: GOVERNANCE_PRIVATE_KEY>",
    "governancePublicKey": "<use .env: GOVERNANCE_PUBLIC_KEY>",
    "governanceTimelock": 4233600,
    "governanceExecutorPublicKey": "<use .env: GOVERNANCE_EXECUTOR_PUBLIC_KEY>",
    "totalNativeSupplyNAT":  100000000000,
    "totalExcludedSupplyNAT": 68000000000,
    "systemStart": 1657911510,
    "initialAirdropStart": 1663113600,
    "incentivePoolStart": 1668384000,
    "initialAirdropLatestStart": 1668384000,
    "distributionLatestEntitlementStart": 1684022400,
    "initialAirdropWei": "3 900 330 239 094 370 633 065 000 000",
    "incentivePoolWei": "20 000 000 000 000 000 000 000 000 000",
    "distributionTotalEntitlementWei": "22 101 871 354 868 100 254 035 000 000",
    "scheduledInflationPercentageBIPS": [1000,1000,1000,1000,1000,1000,1000,1000,1000,1000,1000,1000,700,700,700,700,700,700,700,700,700,700,700,700,500],
    "rewardEpochDurationSeconds": 302400,
    "revealEpochDurationSeconds": 90,
    "priceEpochDurationSeconds": 180,
    "inflationStartDelaySeconds": 0,
    "rewardEpochsStartDelayPriceEpochs": 2880,
    "votePowerIntervalFraction": 2,
    "defaultVoterWhitelistSize": 100,
    "flareDaemonGasExceededHoldoffBlocks": 30,
    "maxVotePowerNatThresholdFraction": 40,
    "maxVotePowerAssetThresholdFraction": 40,
    "lowAssetThresholdUSDDec5": 20000000000,
    "highAssetThresholdUSDDec5": 5000000000000,
    "highAssetTurnoutThresholdBIPS": 6000,
    "lowNatTurnoutThresholdBIPS": 500,
    "priceDeviationThresholdBIPS": 1500,
    "trustedAddresses": [
        "0xf750071F7bFD781431dcC2f0c28D9F500A063eff",
        "0xdcc5B7655a19fB13eEB4f9FE97B05f4f14cf2411",
        "0x7d2BFEEE84d64A4E08A28A68Cd804AD0eAa6D432",
        "0x4033582ab84e24752Bf633391D7Fbef2ef4cFd11"
    ],
    "executorFeeValueUpdateOffsetEpochs": 3,
    "executorMaxFeeValueNAT": 100,
    "executorRegisterFeeValueNAT": 100,
    "rewardFeePercentageUpdateOffsetEpochs": 3,
    "defaultRewardFeePercentageBIPS": 2000,
    "ftsoRewardExpiryOffsetDays": 90,
    "initialWnatPriceUSDDec5": 0,
    "priceEpochCyclicBufferSize": 200,
    "inflationReceivers": ["FtsoRewardManager"],
    "inflationSharingBIPS": [10000],
    "inflationTopUpTypes": [0],
    "inflationTopUpFactorsx100": [400],
    "inflationGasLimit": 2000000,
    "ftsoManagerGasLimit": 40000000,
    "incentivePoolGasLimit": 3000000,
    "deployDistributionContract": true,
    "deployDummyXAssetTokensAndMinters": false,
    "deployNATFtso": false,
    "NATMultiAssets": [],
    "assets": [
        {
            "assetSymbol": "XRP",
            "assetDecimals": 6,
            "ftsoDecimals": 5,
            "xAssetName": "fAsset XRP",
            "xAssetSymbol": "fXRP",
            "dummyAssetMinterMax": 7000000000,
            "initialPriceUSDDec5": 0
        },
        {
            "assetSymbol": "LTC",
            "assetDecimals": 8,
            "ftsoDecimals": 5,
            "xAssetName": "fAsset Litecoin",
            "xAssetSymbol": "fLTC",
            "dummyAssetMinterMax": 4000000000,
            "initialPriceUSDDec5": 0
        },
        {
            "assetSymbol": "XLM",
            "assetDecimals": 6,
            "ftsoDecimals": 5,
            "xAssetName": "fAsset XLM (Lumen)",
            "xAssetSymbol": "fXLM",
            "dummyAssetMinterMax": 7000000000,
            "initialPriceUSDDec5": 0
        },
        {
            "assetSymbol": "DOGE",
            "assetDecimals": 8,
            "ftsoDecimals": 5,
            "xAssetName": "fAsset Dogecoin",
            "xAssetSymbol": "fDOGE",
            "dummyAssetMinterMax": 13000000000000,
            "initialPriceUSDDec5": 0
        },
        {
            "assetSymbol": "ADA",
            "assetDecimals": 8,
            "ftsoDecimals": 5,
            "xAssetName": "fAsset ADA (Cardano)",
            "xAssetSymbol": "fADA",
            "dummyAssetMinterMax": 45000000000,
            "initialPriceUSDDec5": 0
        },
        {
            "assetSymbol": "ALGO",
            "assetDecimals": 8,
            "ftsoDecimals": 5,
            "xAssetName": "fAsset Algorand",
            "xAssetSymbol": "fALGO",
            "dummyAssetMinterMax": 5000000000,
            "initialPriceUSDDec5": 0
        },
        {
            "assetSymbol": "BCH",
            "assetDecimals": 8,
            "ftsoDecimals": 5,
            "xAssetName": "fAsset Bitcoin Cash",
            "xAssetSymbol": "fBCH",
            "dummyAssetMinterMax": 21000000000,
            "initialPriceUSDDec5": 0
        },
        {
            "assetSymbol": "DGB",
            "assetDecimals": 8,
            "ftsoDecimals": 5,
            "xAssetName": "fAsset Digibyte",
            "xAssetSymbol": "fDGB",
            "dummyAssetMinterMax": 10000000000,
            "initialPriceUSDDec5": 0
        },
        {
            "assetSymbol": "BTC",
            "assetDecimals": 6,
            "ftsoDecimals": 5,
            "xAssetName": "fAsset BTC",
            "xAssetSymbol": "fBTC",
            "dummyAssetMinterMax": 7000000000,
            "initialPriceUSDDec5": 0
        },
        {
            "assetSymbol": "ETH",
            "assetDecimals": 18,
            "ftsoDecimals": 5,
            "xAssetName": "fAsset ETH",
            "xAssetSymbol": "fETH",
            "dummyAssetMinterMax": 10000000000,
            "initialPriceUSDDec5": 0
        },
        {
            "assetSymbol": "FIL",
            "assetDecimals": 18,
            "ftsoDecimals": 5,
            "xAssetName": "fAsset FIL",
            "xAssetSymbol": "fFIL",            
            "dummyAssetMinterMax": 10000000000,
            "initialPriceUSDDec5": 0
        }
    ],
    "proposers": [
        "0x1a16DC5ec4f48Ed769949855C3bC3a1d10c72A95",
        "0x893baB99798BCF5e0faB09Ad5CE61872B951F0a5"
    ]
}
